/home/romeo/Documents/pensions-payroll/domain/src/main/java/zw/co/afrosoft/pensions/payroll/beneficiary/BeneficiaryUpdateRequest.java
/home/romeo/Documents/pensions-payroll/domain/src/main/java/zw/co/afrosoft/pensions/payroll/allowance/AllowanceCreateRequest.java
/home/romeo/Documents/pensions-payroll/domain/src/main/java/zw/co/afrosoft/pensions/payroll/pensioner/PensionerCreateRequest.java
/home/romeo/Documents/pensions-payroll/domain/src/main/java/zw/co/afrosoft/pensions/payroll/bank/Bank.java
/home/romeo/Documents/pensions-payroll/domain/src/main/java/zw/co/afrosoft/pensions/payroll/pensioner/Pensioner.java
/home/romeo/Documents/pensions-payroll/domain/src/main/java/zw/co/afrosoft/pensions/payroll/allowance/AllowanceUpdateRequest.java
/home/romeo/Documents/pensions-payroll/domain/src/main/java/zw/co/afrosoft/pensions/payroll/deduction/DeductionUpdateRequest.java
/home/romeo/Documents/pensions-payroll/domain/src/main/java/zw/co/afrosoft/pensions/payroll/pensioner/PensionerUpdateRequest.java
/home/romeo/Documents/pensions-payroll/domain/src/main/java/zw/co/afrosoft/pensions/payroll/branch/Branch.java
/home/romeo/Documents/pensions-payroll/domain/src/main/java/zw/co/afrosoft/pensions/payroll/beneficiary/Beneficiary.java
/home/romeo/Documents/pensions-payroll/domain/src/main/java/zw/co/afrosoft/pensions/payroll/bank/BankingDetailsUpdateRequest.java
/home/romeo/Documents/pensions-payroll/domain/src/main/java/zw/co/afrosoft/pensions/payroll/bank/BankRequest.java
/home/romeo/Documents/pensions-payroll/domain/src/main/java/zw/co/afrosoft/pensions/payroll/remuneration/RemunerationRequest.java
/home/romeo/Documents/pensions-payroll/domain/src/main/java/zw/co/afrosoft/pensions/payroll/deduction/Deduction.java
/home/romeo/Documents/pensions-payroll/domain/src/main/java/zw/co/afrosoft/pensions/payroll/deduction/DeductionCreateRequest.java
/home/romeo/Documents/pensions-payroll/domain/src/main/java/zw/co/afrosoft/pensions/payroll/bank/BankUpdateRequest.java
/home/romeo/Documents/pensions-payroll/domain/src/main/java/zw/co/afrosoft/pensions/payroll/salary/SalaryRequest.java
/home/romeo/Documents/pensions-payroll/domain/src/main/java/zw/co/afrosoft/pensions/payroll/branch/BranchUpdateRequest.java
/home/romeo/Documents/pensions-payroll/domain/src/main/java/zw/co/afrosoft/pensions/payroll/salary/Salary.java
/home/romeo/Documents/pensions-payroll/domain/src/main/java/zw/co/afrosoft/pensions/payroll/beneficiary/BeneficiaryCreateRequest.java
/home/romeo/Documents/pensions-payroll/domain/src/main/java/zw/co/afrosoft/pensions/payroll/bank/BankingDetailsRequest.java
/home/romeo/Documents/pensions-payroll/domain/src/main/java/zw/co/afrosoft/pensions/payroll/salary/SalaryUpdateRequest.java
/home/romeo/Documents/pensions-payroll/domain/src/main/java/zw/co/afrosoft/pensions/payroll/bank/BankingDetails.java
/home/romeo/Documents/pensions-payroll/domain/src/main/java/zw/co/afrosoft/pensions/payroll/allowance/Allowance.java
/home/romeo/Documents/pensions-payroll/domain/src/main/java/zw/co/afrosoft/pensions/payroll/beneficiary/BeneficiaryDetails.java
/home/romeo/Documents/pensions-payroll/domain/src/main/java/zw/co/afrosoft/pensions/payroll/branch/BranchRequest.java
/home/romeo/Documents/pensions-payroll/domain/src/main/java/zw/co/afrosoft/pensions/payroll/remuneration/Remuneration.java
/home/romeo/Documents/pensions-payroll/domain/src/main/java/zw/co/afrosoft/pensions/payroll/beneficiary/BeneficiaryDetailsRequest.java
