/home/romeo/Documents/pensions-payroll/app/src/main/java/zw/co/afrosoft/pensions/payroll/SwaggerConfiguration.java
/home/romeo/Documents/pensions-payroll/app/src/main/java/zw/co/afrosoft/pensions/payroll/WebMvcConfiguration.java
/home/romeo/Documents/pensions-payroll/app/src/main/java/zw/co/afrosoft/pensions/payroll/PensionsPayrollApplication.java
