/home/romeo/Documents/pensions-payroll/util/src/main/java/zw/co/afrosoft/pensions/payroll/enums/Authority.java
/home/romeo/Documents/pensions-payroll/util/src/main/java/zw/co/afrosoft/pensions/payroll/response/AppResponse.java
/home/romeo/Documents/pensions-payroll/util/src/main/java/zw/co/afrosoft/pensions/payroll/enums/Category.java
/home/romeo/Documents/pensions-payroll/util/src/main/java/zw/co/afrosoft/pensions/payroll/message/Message.java
/home/romeo/Documents/pensions-payroll/util/src/main/java/zw/co/afrosoft/pensions/payroll/enums/Relationship.java
/home/romeo/Documents/pensions-payroll/util/src/main/java/zw/co/afrosoft/pensions/payroll/codes/ResponseCode.java
/home/romeo/Documents/pensions-payroll/util/src/main/java/zw/co/afrosoft/pensions/payroll/enums/PaymentStatus.java
/home/romeo/Documents/pensions-payroll/util/src/main/java/zw/co/afrosoft/pensions/payroll/exception/RecordNotFoundException.java
/home/romeo/Documents/pensions-payroll/util/src/main/java/zw/co/afrosoft/pensions/payroll/enums/PensionerStatus.java
